{
    "key": "group_5e099e7816b99",
    "title": "Employees Custom Block",
    "fields": [
        {
            "key": "field_5e09a02c388f6",
            "label": "Employee Picker",
            "name": "employee_post_object",
            "type": "post_object",
            "instructions": "Select employees to be displayed.\r\nEmployees are displayed in the order added above.\r\nEmployees are displayed in a 3 column grid, left-aligned.",
            "required": 0,
            "conditional_logic": 0,
            "wrapper": {
                "width": "",
                "class": "",
                "id": ""
            },
            "post_type": [
                "employee"
            ],
            "taxonomy": "",
            "allow_null": 0,
            "multiple": 1,
            "return_format": "object",
            "ui": 1
        }
    ],
    "location": [
        [
            {
                "param": "block",
                "operator": "==",
                "value": "acf\/employee-custom-block"
            }
        ]
    ],
    "menu_order": 0,
    "position": "normal",
    "style": "default",
    "label_placement": "top",
    "instruction_placement": "label",
    "hide_on_screen": "",
    "active": 1,
    "description": "",
    "modified": 1577689460
}