{
    "key": "group_5ddd4f612b660",
    "title": "Featured Project",
    "fields": [
        {
            "key": "field_5ddd4f716c16f",
            "label": "Slider",
            "name": "is_featured_project",
            "type": "true_false",
            "instructions": "This option sets the Featured Project to be displayed in the Slider on the homepage.",
            "required": 0,
            "conditional_logic": 0,
            "wrapper": {
                "width": "",
                "class": "",
                "id": ""
            },
            "message": "",
            "default_value": 0,
            "ui": 1,
            "ui_on_text": "Yes",
            "ui_off_text": "No"
        },
        {
            "key": "field_5df01439c51e7",
            "label": "Category",
            "name": "is_category_project",
            "type": "true_false",
            "instructions": "This option sets the Featured Project to be displayed on the \"Industry Experience\" page when the related category is selected.",
            "required": 0,
            "conditional_logic": 0,
            "wrapper": {
                "width": "",
                "class": "",
                "id": ""
            },
            "message": "",
            "default_value": 0,
            "ui": 1,
            "ui_on_text": "Yes",
            "ui_off_text": "No"
        }
    ],
    "location": [
        [
            {
                "param": "post_type",
                "operator": "==",
                "value": "project"
            }
        ]
    ],
    "menu_order": 0,
    "position": "side",
    "style": "default",
    "label_placement": "top",
    "instruction_placement": "label",
    "hide_on_screen": "",
    "active": 1,
    "description": "",
    "modified": 1576086477
}