{
    "key": "group_5dee720f713ed",
    "title": "Block - Logo Carousel",
    "fields": [
        {
            "key": "field_5dee721b8ba03",
            "label": "",
            "name": "",
            "type": "message",
            "instructions": "",
            "required": 0,
            "conditional_logic": 0,
            "wrapper": {
                "width": "",
                "class": "",
                "id": ""
            },
            "message": "Infinite Logo Carousel - carousel will loop around.<br\/>\r\nMax 30 items in carousel for performance reasons.<br\/>\r\nShows max 5 items at once. Carousel will not trigger until more than 5 items are added.",
            "new_lines": "wpautop",
            "esc_html": 0
        },
        {
            "key": "field_5dee754d2bf30",
            "label": "Slide Repeater",
            "name": "slide_repeater",
            "type": "repeater",
            "instructions": "",
            "required": 0,
            "conditional_logic": 0,
            "wrapper": {
                "width": "",
                "class": "",
                "id": ""
            },
            "collapsed": "",
            "min": 0,
            "max": 30,
            "layout": "table",
            "button_label": "Add Slide",
            "sub_fields": [
                {
                    "key": "field_5dee7533d1029",
                    "label": "Logo",
                    "name": "slide_logo",
                    "type": "image",
                    "instructions": "",
                    "required": 0,
                    "conditional_logic": 0,
                    "wrapper": {
                        "width": "",
                        "class": "",
                        "id": ""
                    },
                    "return_format": "array",
                    "preview_size": "medium",
                    "library": "all",
                    "min_width": "",
                    "min_height": "",
                    "min_size": "",
                    "max_width": "",
                    "max_height": "",
                    "max_size": "",
                    "mime_types": ""
                }
            ]
        }
    ],
    "location": [
        [
            {
                "param": "page_template",
                "operator": "==",
                "value": "front-page.php"
            }
        ],
        [
            {
                "param": "block",
                "operator": "==",
                "value": "acf\/logo-carousel"
            }
        ]
    ],
    "menu_order": 0,
    "position": "normal",
    "style": "default",
    "label_placement": "top",
    "instruction_placement": "label",
    "hide_on_screen": "",
    "active": 1,
    "description": "",
    "modified": 1579630830
}